{
 "custom_fields": [],
 "custom_perms": [
  {
   "_assign": null,
   "_comments": null,
   "_liked_by": null,
   "_user_tags": null,
   "amend": 0,
   "cancel": 0,
   "create": 1,
   "creation": "2023-10-09 21:06:08.410234",
   "delete": 0,
   "docstatus": 0,
   "email": 0,
   "export": 1,
   "idx": 0,
   "if_owner": 0,
   "import": 0,
   "modified": "2023-10-09 21:06:08.410234",
   "modified_by": "Administrator",
   "name": "070705b672",
   "owner": "Administrator",
   "parent": "Address",
   "permlevel": 0,
   "print": 0,
   "read": 1,
   "report": 0,
   "role": "Purchase User",
   "select": 1,
   "set_user_permissions": 0,
   "share": 0,
   "submit": 0,
   "write": 1
  },
  {
   "_assign": null,
   "_comments": null,
   "_liked_by": null,
   "_user_tags": null,
   "amend": 0,
   "cancel": 0,
   "create": 1,
   "creation": "2023-10-09 21:06:13.301126",
   "delete": 0,
   "docstatus": 0,
   "email": 0,
   "export": 1,
   "idx": 0,
   "if_owner": 0,
   "import": 0,
   "modified": "2023-10-09 21:06:13.301126",
   "modified_by": "Administrator",
   "name": "996321cfe4",
   "owner": "Administrator",
   "parent": "Address",
   "permlevel": 0,
   "print": 0,
   "read": 1,
   "report": 0,
   "role": "Sales User",
   "select": 1,
   "set_user_permissions": 0,
   "share": 0,
   "submit": 0,
   "write": 1
  },
  {
   "_assign": null,
   "_comments": null,
   "_liked_by": null,
   "_user_tags": null,
   "amend": 0,
   "cancel": 0,
   "create": 1,
   "creation": "2023-10-09 21:06:28.765306",
   "delete": 0,
   "docstatus": 0,
   "email": 0,
   "export": 1,
   "idx": 0,
   "if_owner": 0,
   "import": 0,
   "modified": "2023-10-09 21:06:28.765306",
   "modified_by": "Administrator",
   "name": "cf5f85bb45",
   "owner": "Administrator",
   "parent": "Address",
   "permlevel": 0,
   "print": 0,
   "read": 1,
   "report": 0,
   "role": "Maintenance User",
   "select": 1,
   "set_user_permissions": 0,
   "share": 0,
   "submit": 0,
   "write": 1
  },
  {
   "_assign": null,
   "_comments": null,
   "_liked_by": null,
   "_user_tags": null,
   "amend": 0,
   "cancel": 0,
   "create": 1,
   "creation": "2023-10-09 21:06:34.384891",
   "delete": 0,
   "docstatus": 0,
   "email": 0,
   "export": 1,
   "idx": 0,
   "if_owner": 0,
   "import": 0,
   "modified": "2023-10-09 21:06:34.384891",
   "modified_by": "Administrator",
   "name": "201ad1e528",
   "owner": "Administrator",
   "parent": "Address",
   "permlevel": 0,
   "print": 0,
   "read": 1,
   "report": 0,
   "role": "Accounts User",
   "select": 1,
   "set_user_permissions": 0,
   "share": 0,
   "submit": 0,
   "write": 1
  },
  {
   "_assign": null,
   "_comments": null,
   "_liked_by": null,
   "_user_tags": null,
   "amend": 0,
   "cancel": 0,
   "create": 1,
   "creation": "2023-10-11 12:43:30.057828",
   "delete": 1,
   "docstatus": 0,
   "email": 0,
   "export": 0,
   "idx": 0,
   "if_owner": 1,
   "import": 0,
   "modified": "2023-10-11 12:43:30.057828",
   "modified_by": "Administrator",
   "name": "2a09bae206",
   "owner": "Administrator",
   "parent": "Address",
   "permlevel": 0,
   "print": 0,
   "read": 1,
   "report": 0,
   "role": "All",
   "select": 1,
   "set_user_permissions": 0,
   "share": 0,
   "submit": 0,
   "write": 0
  },
  {
   "_assign": null,
   "_comments": null,
   "_liked_by": null,
   "_user_tags": null,
   "amend": 0,
   "cancel": 0,
   "create": 1,
   "creation": "2023-10-11 12:43:34.947433",
   "delete": 1,
   "docstatus": 0,
   "email": 1,
   "export": 1,
   "idx": 0,
   "if_owner": 0,
   "import": 1,
   "modified": "2023-10-11 12:43:34.947433",
   "modified_by": "Administrator",
   "name": "bb9d7ee029",
   "owner": "Administrator",
   "parent": "Address",
   "permlevel": 0,
   "print": 1,
   "read": 1,
   "report": 1,
   "role": "System Manager",
   "select": 1,
   "set_user_permissions": 1,
   "share": 1,
   "submit": 0,
   "write": 1
  }
 ],
 "doctype": "Address",
 "links": [],
 "property_setters": [],
 "sync_on_migrate": 0
}
