{
 "custom_fields": [],
 "custom_perms": [
  {
   "_assign": null,
   "_comments": null,
   "_liked_by": null,
   "_user_tags": null,
   "amend": 0,
   "cancel": 0,
   "create": 1,
   "creation": "2023-10-09 21:00:54.557341",
   "delete": 1,
   "docstatus": 0,
   "email": 1,
   "export": 1,
   "idx": 1,
   "if_owner": 0,
   "import": 1,
   "modified": "2023-10-09 21:00:54.557341",
   "modified_by": "Administrator",
   "name": "0bba96a573",
   "owner": "Administrator",
   "parent": "Contact",
   "permlevel": 0,
   "print": 1,
   "read": 1,
   "report": 1,
   "role": "System Manager",
   "select": 1,
   "set_user_permissions": 1,
   "share": 1,
   "submit": 0,
   "write": 1
  },
  {
   "_assign": null,
   "_comments": null,
   "_liked_by": null,
   "_user_tags": null,
   "amend": 0,
   "cancel": 0,
   "create": 1,
   "creation": "2023-10-09 21:00:54.689839",
   "delete": 1,
   "docstatus": 0,
   "email": 0,
   "export": 0,
   "idx": 2,
   "if_owner": 1,
   "import": 0,
   "modified": "2023-10-09 21:00:54.689839",
   "modified_by": "Administrator",
   "name": "424f7c9e48",
   "owner": "Administrator",
   "parent": "Contact",
   "permlevel": 0,
   "print": 0,
   "read": 1,
   "report": 0,
   "role": "All",
   "select": 1,
   "set_user_permissions": 0,
   "share": 0,
   "submit": 0,
   "write": 1
  },
  {
   "_assign": null,
   "_comments": null,
   "_liked_by": null,
   "_user_tags": null,
   "amend": 0,
   "cancel": 0,
   "create": 1,
   "creation": "2023-10-09 21:00:54.711302",
   "delete": 0,
   "docstatus": 0,
   "email": 0,
   "export": 1,
   "idx": 0,
   "if_owner": 0,
   "import": 0,
   "modified": "2023-10-09 21:00:54.711302",
   "modified_by": "Administrator",
   "name": "3c5dc999eb",
   "owner": "Administrator",
   "parent": "Contact",
   "permlevel": 0,
   "print": 0,
   "read": 1,
   "report": 0,
   "role": "Accounts Manager",
   "select": 1,
   "set_user_permissions": 0,
   "share": 0,
   "submit": 0,
   "write": 1
  },
  {
   "_assign": null,
   "_comments": null,
   "_liked_by": null,
   "_user_tags": null,
   "amend": 0,
   "cancel": 0,
   "create": 1,
   "creation": "2023-10-09 21:01:05.347550",
   "delete": 0,
   "docstatus": 0,
   "email": 0,
   "export": 1,
   "idx": 0,
   "if_owner": 0,
   "import": 0,
   "modified": "2023-10-09 21:01:05.347550",
   "modified_by": "Administrator",
   "name": "9c7785d437",
   "owner": "Administrator",
   "parent": "Contact",
   "permlevel": 0,
   "print": 0,
   "read": 1,
   "report": 0,
   "role": "Sales Manager",
   "select": 1,
   "set_user_permissions": 0,
   "share": 0,
   "submit": 0,
   "write": 1
  },
  {
   "_assign": null,
   "_comments": null,
   "_liked_by": null,
   "_user_tags": null,
   "amend": 0,
   "cancel": 0,
   "create": 1,
   "creation": "2023-10-09 21:01:12.397475",
   "delete": 0,
   "docstatus": 0,
   "email": 0,
   "export": 1,
   "idx": 0,
   "if_owner": 0,
   "import": 0,
   "modified": "2023-10-09 21:01:12.397475",
   "modified_by": "Administrator",
   "name": "aef3fd4c64",
   "owner": "Administrator",
   "parent": "Contact",
   "permlevel": 0,
   "print": 0,
   "read": 1,
   "report": 0,
   "role": "Sales Master Manager",
   "select": 1,
   "set_user_permissions": 0,
   "share": 0,
   "submit": 0,
   "write": 1
  },
  {
   "_assign": null,
   "_comments": null,
   "_liked_by": null,
   "_user_tags": null,
   "amend": 0,
   "cancel": 0,
   "create": 1,
   "creation": "2023-10-09 21:01:22.829065",
   "delete": 0,
   "docstatus": 0,
   "email": 0,
   "export": 1,
   "idx": 0,
   "if_owner": 0,
   "import": 0,
   "modified": "2023-10-09 21:01:22.829065",
   "modified_by": "Administrator",
   "name": "7a8788c4fd",
   "owner": "Administrator",
   "parent": "Contact",
   "permlevel": 0,
   "print": 0,
   "read": 1,
   "report": 0,
   "role": "Purchase Master Manager",
   "select": 1,
   "set_user_permissions": 0,
   "share": 0,
   "submit": 0,
   "write": 1
  },
  {
   "_assign": null,
   "_comments": null,
   "_liked_by": null,
   "_user_tags": null,
   "amend": 0,
   "cancel": 0,
   "create": 1,
   "creation": "2023-10-09 21:01:27.920607",
   "delete": 0,
   "docstatus": 0,
   "email": 0,
   "export": 1,
   "idx": 0,
   "if_owner": 0,
   "import": 0,
   "modified": "2023-10-09 21:01:27.920607",
   "modified_by": "Administrator",
   "name": "fdacf3a905",
   "owner": "Administrator",
   "parent": "Contact",
   "permlevel": 0,
   "print": 0,
   "read": 1,
   "report": 0,
   "role": "Purchase Manager",
   "select": 1,
   "set_user_permissions": 0,
   "share": 0,
   "submit": 0,
   "write": 1
  },
  {
   "_assign": null,
   "_comments": null,
   "_liked_by": null,
   "_user_tags": null,
   "amend": 0,
   "cancel": 0,
   "create": 0,
   "creation": "2023-10-09 21:01:44.061176",
   "delete": 0,
   "docstatus": 0,
   "email": 0,
   "export": 1,
   "idx": 0,
   "if_owner": 0,
   "import": 0,
   "modified": "2023-10-09 21:01:44.061176",
   "modified_by": "Administrator",
   "name": "08b53e9864",
   "owner": "Administrator",
   "parent": "Contact",
   "permlevel": 0,
   "print": 0,
   "read": 1,
   "report": 0,
   "role": "Maintenance Manager",
   "select": 0,
   "set_user_permissions": 0,
   "share": 0,
   "submit": 0,
   "write": 0
  },
  {
   "_assign": null,
   "_comments": null,
   "_liked_by": null,
   "_user_tags": null,
   "amend": 0,
   "cancel": 0,
   "create": 1,
   "creation": "2023-10-09 21:01:51.166139",
   "delete": 0,
   "docstatus": 0,
   "email": 0,
   "export": 1,
   "idx": 0,
   "if_owner": 0,
   "import": 0,
   "modified": "2023-10-09 21:01:51.166139",
   "modified_by": "Administrator",
   "name": "79c1291327",
   "owner": "Administrator",
   "parent": "Contact",
   "permlevel": 0,
   "print": 0,
   "read": 1,
   "report": 0,
   "role": "Sales User",
   "select": 1,
   "set_user_permissions": 0,
   "share": 0,
   "submit": 0,
   "write": 1
  },
  {
   "_assign": null,
   "_comments": null,
   "_liked_by": null,
   "_user_tags": null,
   "amend": 0,
   "cancel": 0,
   "create": 1,
   "creation": "2023-10-09 21:01:54.152333",
   "delete": 0,
   "docstatus": 0,
   "email": 0,
   "export": 1,
   "idx": 0,
   "if_owner": 0,
   "import": 0,
   "modified": "2023-10-09 21:01:54.152333",
   "modified_by": "Administrator",
   "name": "4b23019bc8",
   "owner": "Administrator",
   "parent": "Contact",
   "permlevel": 0,
   "print": 0,
   "read": 1,
   "report": 0,
   "role": "Purchase User",
   "select": 1,
   "set_user_permissions": 0,
   "share": 0,
   "submit": 0,
   "write": 1
  },
  {
   "_assign": null,
   "_comments": null,
   "_liked_by": null,
   "_user_tags": null,
   "amend": 0,
   "cancel": 0,
   "create": 1,
   "creation": "2023-10-09 21:01:59.564776",
   "delete": 0,
   "docstatus": 0,
   "email": 0,
   "export": 1,
   "idx": 0,
   "if_owner": 0,
   "import": 0,
   "modified": "2023-10-09 21:01:59.564776",
   "modified_by": "Administrator",
   "name": "84721f74ce",
   "owner": "Administrator",
   "parent": "Contact",
   "permlevel": 0,
   "print": 0,
   "read": 1,
   "report": 0,
   "role": "Accounts User",
   "select": 1,
   "set_user_permissions": 0,
   "share": 0,
   "submit": 0,
   "write": 1
  }
 ],
 "doctype": "Contact",
 "links": [],
 "property_setters": [],
 "sync_on_migrate": 0
}
