{
 "creation": "2023-08-31 11:54:15.218486",
 "dashboard_name": "",
 "docstatus": 0,
 "doctype": "Form Tour",
 "first_document": 0,
 "idx": 0,
 "include_name_field": 0,
 "is_standard": 1,
 "language": "fr",
 "list_name": "Gantt",
 "modified": "2023-08-31 12:18:56.564909",
 "modified_by": "Administrator",
 "module": "Projects",
 "name": "Vue Gantt",
 "new_document_form": 0,
 "owner": "Administrator",
 "page_name": "",
 "page_route": "[\"List\",\"Task\",\"Gantt\"]",
 "reference_doctype": "Task",
 "report_name": "",
 "save_on_complete": 0,
 "steps": [
  {
   "description": "Retrouvez vos t\u00e2ches sur un diagramme de Gantt ici.",
   "element_selector": "div.page-wrapper > div > div.row.layout-main > div.col.layout-main-section-wrapper > div.layout-main-section.frappe-card",
   "fieldtype": "0",
   "has_next_condition": 0,
   "hide_buttons": 0,
   "is_table_field": 0,
   "modal_trigger": 0,
   "next_on_click": 0,
   "offset_x": 0,
   "offset_y": 0,
   "popover_element": 0,
   "position": "Mid Center",
   "title": "Bienvenue sur votre vue Gantt !",
   "ui_tour": 1
  },
  {
   "description": "Ce gantt est int\u00e9ractif. Vous pouvez :\n<ul><li>cliquer-glisser pour d\u00e9placer une t\u00e2che</li>\n<li>cliquer sur une t\u00e2che pour la s\u00e9lectionner puis cliquer et maintenez les bords pour \u00e9tirer une t\u00e2che </li>\n<li>double-cliquer sur une t\u00e2che pour acc\u00e9der au d\u00e9tail</li>\n</ul>",
   "element_selector": "div.col.layout-main-section-wrapper > div.layout-main-section.frappe-card > div.frappe-list > div.result.gantt-modern > div",
   "fieldtype": "0",
   "has_next_condition": 0,
   "hide_buttons": 0,
   "is_table_field": 0,
   "modal_trigger": 0,
   "next_on_click": 0,
   "offset_x": 0,
   "offset_y": 0,
   "popover_element": 0,
   "position": "Bottom",
   "title": "Une vue int\u00e9ractive !",
   "ui_tour": 1
  },
  {
   "description": "Vous disposez de diff\u00e9rents pas de temps \u00e0 afficher.",
   "element_selector": "div.layout-main-section.frappe-card > div.frappe-list > div.list-paging-area.level > div.level-left > div.btn-group.gantt-view-mode",
   "fieldtype": "0",
   "has_next_condition": 0,
   "hide_buttons": 0,
   "is_table_field": 0,
   "modal_trigger": 0,
   "next_on_click": 0,
   "offset_x": 0,
   "offset_y": 0,
   "popover_element": 0,
   "position": "Bottom",
   "title": "R\u00e9glage de l'\u00e9chelle",
   "ui_tour": 1
  },
  {
   "description": "Une fois que vous avez s\u00e9lectionn\u00e9 la vue ad\u00e9quate, vous pouvez choisir ici le projet que vous souhaitez visualiser. <br>",
   "element_selector": "div.layout-main-section.frappe-card > div.page-form.flex > div.standard-filter-section.flex > div:nth-child(3)",
   "fieldtype": "0",
   "has_next_condition": 0,
   "hide_buttons": 0,
   "is_table_field": 0,
   "modal_trigger": 0,
   "next_on_click": 0,
   "offset_x": 0,
   "offset_y": 0,
   "popover_element": 0,
   "position": "Left",
   "title": "Filtrez par projet",
   "ui_tour": 1
  },
  {
   "description": "Vous pouvez filtrer les t\u00e2ches par statut. Par exemple pour voir uniquement les t\u00e2ches ayant le statut \"En retard\" ou \"Ouvert\" etc.",
   "element_selector": "div.layout-main-section.frappe-card > div.page-form.flex > div.standard-filter-section.flex > div:nth-child(4)",
   "fieldtype": "0",
   "has_next_condition": 0,
   "hide_buttons": 0,
   "is_table_field": 0,
   "modal_trigger": 0,
   "next_on_click": 0,
   "offset_x": 0,
   "offset_y": 0,
   "popover_element": 0,
   "position": "Bottom",
   "title": "Filtrez pas statut",
   "ui_tour": 1
  },
  {
   "description": "Pour voir uniquement les t\u00e2ches d'un certain niveau de priorit\u00e9",
   "element_selector": "div.layout-main-section.frappe-card > div.page-form.flex > div.standard-filter-section.flex > div:nth-child(5)",
   "fieldtype": "0",
   "has_next_condition": 0,
   "hide_buttons": 0,
   "is_table_field": 0,
   "modal_trigger": 0,
   "next_on_click": 0,
   "offset_x": 0,
   "offset_y": 0,
   "popover_element": 0,
   "position": "Bottom",
   "title": "Filtrez par priorit\u00e9",
   "ui_tour": 1
  },
  {
   "description": "N'oubliez pas d'assigner vos t\u00e2ches \u00e0 quelqu'un avant !",
   "element_selector": "div > ul:nth-child(2) > div.sidebar-section.filter-section > div.list-group-by > div > li:nth-child(1)",
   "fieldtype": "0",
   "has_next_condition": 0,
   "hide_buttons": 0,
   "is_table_field": 0,
   "modal_trigger": 0,
   "next_on_click": 0,
   "offset_x": 0,
   "offset_y": 0,
   "popover_element": 0,
   "position": "Right",
   "title": "Filtrez par personnes assign\u00e9es",
   "ui_tour": 1
  }
 ],
 "title": "Vue Gantt",
 "track_steps": 1,
 "ui_tour": 1,
 "view_name": "List",
 "workspace_name": ""
}