{
 "charts": [],
 "content": "[{\"id\":\"sR77Ojqb70\",\"type\":\"header\",\"data\":{\"text\":\"<span class=\\\"h4\\\">Stock Data</span>\",\"col\":12}},{\"id\":\"cOexiveJTk\",\"type\":\"number_card\",\"data\":{\"number_card_name\":\"Total Active Stock Items\",\"col\":4}},{\"id\":\"67tgMPKMJ4\",\"type\":\"number_card\",\"data\":{\"number_card_name\":\"Total Warehouses\",\"col\":4}},{\"id\":\"4z35bCYICu\",\"type\":\"spacer\",\"data\":{\"col\":12}},{\"id\":\"DF4O3sPFFt\",\"type\":\"quick_list\",\"data\":{\"quick_list_name\":\"Active Serial No\",\"col\":4}},{\"id\":\"W-HY_czrn6\",\"type\":\"quick_list\",\"data\":{\"quick_list_name\":\"Active Batches\",\"col\":4}},{\"id\":\"5C_1TcTZEt\",\"type\":\"quick_list\",\"data\":{\"quick_list_name\":\"Active Serial and Batch Bundles\",\"col\":4}},{\"id\":\"XSemexzA-5\",\"type\":\"spacer\",\"data\":{\"col\":12}},{\"id\":\"mvObS1woKS\",\"type\":\"shortcut\",\"data\":{\"shortcut_name\":\"Stock Settings\",\"col\":3}},{\"id\":\"QuJWWFUQ5b\",\"type\":\"spacer\",\"data\":{\"col\":12}},{\"id\":\"beNxrOGHGF\",\"type\":\"card\",\"data\":{\"card_name\":\"Warehouses\",\"col\":4}},{\"id\":\"uRyM3GF4kX\",\"type\":\"card\",\"data\":{\"card_name\":\"Items\",\"col\":4}},{\"id\":\"Gfzm7rwWGA\",\"type\":\"card\",\"data\":{\"card_name\":\"Item Variants\",\"col\":4}},{\"id\":\"SCDpge2aKC\",\"type\":\"card\",\"data\":{\"card_name\":\"Units of Measure\",\"col\":4}},{\"id\":\"Yfg0YBfhaC\",\"type\":\"card\",\"data\":{\"card_name\":\"Serial and Batch N°\",\"col\":4}},{\"id\":\"XOSpWOZ_Op\",\"type\":\"card\",\"data\":{\"card_name\":\"Manufacturers\",\"col\":4}},{\"id\":\"hCTTR0YRg_\",\"type\":\"card\",\"data\":{\"card_name\":\"Tariffs\",\"col\":4}}]",
 "creation": "2023-08-29 11:40:16.326639",
 "custom_blocks": [],
 "docstatus": 0,
 "doctype": "Workspace",
 "for_user": "",
 "hide_custom": 0,
 "icon": "stock",
 "idx": 0,
 "is_hidden": 0,
 "is_standard": 1,
 "label": "Stock Data",
 "links": [
  {
   "columns": 0,
   "hidden": 0,
   "is_query_report": 0,
   "label": "Items",
   "link_count": 3,
   "onboard": 0,
   "type": "Card Break"
  },
  {
   "columns": 0,
   "hidden": 0,
   "is_query_report": 0,
   "label": "Items",
   "link_count": 0,
   "link_to": "Item",
   "link_type": "DocType",
   "onboard": 0,
   "type": "Link"
  },
  {
   "columns": 0,
   "hidden": 0,
   "is_query_report": 0,
   "label": "Item Groups",
   "link_count": 0,
   "link_to": "Item Group",
   "link_type": "DocType",
   "onboard": 0,
   "type": "Link"
  },
  {
   "columns": 0,
   "hidden": 0,
   "is_query_report": 0,
   "label": "Product Bundles",
   "link_count": 0,
   "link_to": "Product Bundle",
   "link_type": "DocType",
   "onboard": 0,
   "type": "Link"
  },
  {
   "columns": 0,
   "hidden": 0,
   "is_query_report": 0,
   "label": "Tariffs",
   "link_count": 1,
   "onboard": 0,
   "type": "Card Break"
  },
  {
   "columns": 0,
   "hidden": 0,
   "is_query_report": 0,
   "label": "Customs Tariff Numbers",
   "link_count": 0,
   "link_to": "Customs Tariff Number",
   "link_type": "DocType",
   "onboard": 0,
   "type": "Link"
  },
  {
   "columns": 0,
   "hidden": 0,
   "is_query_report": 0,
   "label": "Manufacturers",
   "link_count": 2,
   "onboard": 0,
   "type": "Card Break"
  },
  {
   "columns": 0,
   "hidden": 0,
   "is_query_report": 0,
   "label": "Item Manufacturers",
   "link_count": 0,
   "link_to": "Item Manufacturer",
   "link_type": "DocType",
   "onboard": 0,
   "type": "Link"
  },
  {
   "columns": 0,
   "hidden": 0,
   "is_query_report": 0,
   "label": "Manufacturers",
   "link_count": 0,
   "link_to": "Manufacturer",
   "link_type": "DocType",
   "onboard": 0,
   "type": "Link"
  },
  {
   "columns": 0,
   "hidden": 0,
   "is_query_report": 0,
   "label": "Warehouses",
   "link_count": 1,
   "onboard": 0,
   "type": "Card Break"
  },
  {
   "columns": 0,
   "hidden": 0,
   "is_query_report": 0,
   "label": "Warehouses",
   "link_count": 0,
   "link_to": "Warehouse",
   "link_type": "DocType",
   "onboard": 0,
   "type": "Link"
  },
  {
   "columns": 0,
   "hidden": 0,
   "is_query_report": 0,
   "label": "Item Variants",
   "link_count": 2,
   "onboard": 0,
   "type": "Card Break"
  },
  {
   "columns": 0,
   "hidden": 0,
   "is_query_report": 0,
   "label": "Item Attribute",
   "link_count": 0,
   "link_to": "Item Attribute",
   "link_type": "DocType",
   "onboard": 0,
   "type": "Link"
  },
  {
   "columns": 0,
   "hidden": 0,
   "is_query_report": 0,
   "label": "Item Variant Settings",
   "link_count": 0,
   "link_to": "Item Variant Settings",
   "link_type": "DocType",
   "onboard": 0,
   "type": "Link"
  },
  {
   "columns": 0,
   "hidden": 0,
   "is_query_report": 0,
   "label": "Units of Measure",
   "link_count": 3,
   "onboard": 0,
   "type": "Card Break"
  },
  {
   "columns": 0,
   "hidden": 0,
   "is_query_report": 0,
   "label": "UOMs",
   "link_count": 0,
   "link_to": "UOM",
   "link_type": "DocType",
   "onboard": 0,
   "type": "Link"
  },
  {
   "columns": 0,
   "hidden": 0,
   "is_query_report": 0,
   "label": "UOM Categories",
   "link_count": 0,
   "link_to": "UOM Category",
   "link_type": "DocType",
   "onboard": 0,
   "type": "Link"
  },
  {
   "columns": 0,
   "hidden": 0,
   "is_query_report": 0,
   "label": "UOM Conversion Factors",
   "link_count": 0,
   "link_to": "UOM Conversion Factor",
   "link_type": "DocType",
   "onboard": 0,
   "type": "Link"
  },
  {
   "columns": 0,
   "hidden": 0,
   "is_query_report": 0,
   "label": "Serial and Batch N°",
   "link_count": 3,
   "onboard": 0,
   "type": "Card Break"
  },
  {
   "columns": 0,
   "hidden": 0,
   "is_query_report": 0,
   "label": "Serial and Batch Bundle",
   "link_count": 0,
   "link_to": "Serial and Batch Bundle",
   "link_type": "DocType",
   "onboard": 0,
   "type": "Link"
  },
  {
   "columns": 0,
   "hidden": 0,
   "is_query_report": 0,
   "label": "Serial No",
   "link_count": 0,
   "link_to": "Serial No",
   "link_type": "DocType",
   "onboard": 0,
   "type": "Link"
  },
  {
   "columns": 0,
   "hidden": 0,
   "is_query_report": 0,
   "label": "Batch",
   "link_count": 0,
   "link_to": "Batch",
   "link_type": "DocType",
   "onboard": 0,
   "type": "Link"
  }
 ],
 "modified": "2023-09-19 09:37:20.772736",
 "modified_by": "Administrator",
 "module": "Stock",
 "name": "Stock Data",
 "number_cards": [
  {
   "label": "Total Active Stock Items",
   "number_card_name": "Total Active Stock Items"
  },
  {
   "label": "Total Warehouses",
   "number_card_name": "Total Warehouses"
  }
 ],
 "owner": "Administrator",
 "parent_page": "Stock",
 "public": 1,
 "quick_lists": [
  {
   "document_type": "Serial and Batch Bundle",
   "label": "Active Serial and Batch Bundles",
   "quick_list_filter": "{\"is_cancelled\":[\"=\",0]}"
  },
  {
   "document_type": "Serial No",
   "label": "Active Serial No",
   "quick_list_filter": "{\"status\":[\"=\",\"Active\"]}"
  },
  {
   "document_type": "Batch",
   "label": "Active Batches",
   "quick_list_filter": "{\"disabled\":[\"=\",0]}"
  }
 ],
 "roles": [],
 "sequence_id": 49.0,
 "shortcuts": [
  {
   "color": "Gray",
   "columns": 3,
   "doc_view": "List",
   "label": "Stock Settings",
   "link_to": "Stock Settings",
   "type": "DocType"
  }
 ],
 "title": "Stock Data"
}
