{
 "creation": "2021-11-23 10:44:13.185982",
 "docstatus": 0,
 "doctype": "Form Tour",
 "first_document": 0,
 "idx": 0,
 "include_name_field": 0,
 "is_standard": 1,
 "language": "en",
 "list_name": "List",
 "modified": "2023-08-10 16:11:32.587115",
 "modified_by": "Administrator",
 "module": "Selling",
 "name": "Customer",
 "new_document_form": 0,
 "owner": "Administrator",
 "reference_doctype": "Customer",
 "save_on_complete": 1,
 "steps": [
  {
   "description": "Enter the Full Name of the Customer",
   "fieldname": "customer_name",
   "fieldtype": "Data",
   "has_next_condition": 0,
   "hide_buttons": 0,
   "is_table_field": 0,
   "label": "Customer Name",
   "modal_trigger": 0,
   "next_on_click": 0,
   "offset_x": 0,
   "offset_y": 0,
   "popover_element": 0,
   "position": "Left",
   "title": "Full Name",
   "ui_tour": 0
  }
 ],
 "title": "Customer",
 "track_steps": 0,
 "ui_tour": 0
}
