{
 "charts": [],
 "color": "#72ac82",
 "content": "[{\"id\":\"-Bfa6phH9w\",\"type\":\"header\",\"data\":{\"text\":\"🏃 <span class=\\\"h4\\\">Your Shortcuts</span>\",\"col\":12}},{\"id\":\"vuQFgeIKoo\",\"type\":\"shortcut\",\"data\":{\"shortcut_name\":\"Issue\",\"col\":4}},{\"id\":\"Q7eQhMvsRh\",\"type\":\"shortcut\",\"data\":{\"shortcut_name\":\"Maintenance Visit\",\"col\":4}},{\"id\":\"OaREjX-sgJ\",\"type\":\"shortcut\",\"data\":{\"shortcut_name\":\"Service Level Agreement\",\"col\":4}},{\"id\":\"Hy-QJ19bu1\",\"type\":\"spacer\",\"data\":{\"col\":12}},{\"id\":\"Ind6QrKKsa\",\"type\":\"header\",\"data\":{\"text\":\"🗃️ <span class=\\\"h4\\\">Reports &amp; Masters</span>\",\"col\":12}},{\"id\":\"SXjful0Yyt\",\"type\":\"card\",\"data\":{\"card_name\":\"Issues\",\"col\":4}},{\"id\":\"Zy32Pr1yN0\",\"type\":\"card\",\"data\":{\"card_name\":\"Maintenance\",\"col\":4}},{\"id\":\"eDg4GITjGM\",\"type\":\"card\",\"data\":{\"card_name\":\"Service Level Agreement\",\"col\":4}},{\"id\":\"v-d5ZJAkI7\",\"type\":\"card\",\"data\":{\"card_name\":\"Warranty\",\"col\":4}},{\"id\":\"OEeDvbLkSU\",\"type\":\"card\",\"data\":{\"card_name\":\"Settings\",\"col\":4}},{\"id\":\"FYzUmnuSay\",\"type\":\"card\",\"data\":{\"card_name\":\"Reports\",\"col\":4}}]",
 "creation": "2020-03-02 15:48:23.224699",
 "custom_blocks": [],
 "docstatus": 0,
 "doctype": "Workspace",
 "hide_custom": 0,
 "icon": "support",
 "idx": 0,
 "is_hidden": 0,
 "is_standard": 1,
 "label": "Support",
 "links": [
  {
   "columns": 0,
   "hidden": 0,
   "is_query_report": 0,
   "label": "Issues",
   "link_count": 0,
   "onboard": 0,
   "type": "Card Break"
  },
  {
   "columns": 0,
   "dependencies": "",
   "hidden": 0,
   "is_query_report": 0,
   "label": "Issue",
   "link_count": 0,
   "link_to": "Issue",
   "link_type": "DocType",
   "onboard": 1,
   "type": "Link"
  },
  {
   "columns": 0,
   "dependencies": "",
   "hidden": 0,
   "is_query_report": 0,
   "label": "Issue Type",
   "link_count": 0,
   "link_to": "Issue Type",
   "link_type": "DocType",
   "onboard": 0,
   "type": "Link"
  },
  {
   "columns": 0,
   "dependencies": "",
   "hidden": 0,
   "is_query_report": 0,
   "label": "Issue Priority",
   "link_count": 0,
   "link_to": "Issue Priority",
   "link_type": "DocType",
   "onboard": 0,
   "type": "Link"
  },
  {
   "columns": 0,
   "hidden": 0,
   "is_query_report": 0,
   "label": "Maintenance",
   "link_count": 0,
   "onboard": 0,
   "type": "Card Break"
  },
  {
   "columns": 0,
   "dependencies": "",
   "hidden": 0,
   "is_query_report": 0,
   "label": "Maintenance Schedule",
   "link_count": 0,
   "link_to": "Maintenance Schedule",
   "link_type": "DocType",
   "onboard": 0,
   "type": "Link"
  },
  {
   "columns": 0,
   "dependencies": "",
   "hidden": 0,
   "is_query_report": 0,
   "label": "Maintenance Visit",
   "link_count": 0,
   "link_to": "Maintenance Visit",
   "link_type": "DocType",
   "onboard": 0,
   "type": "Link"
  },
  {
   "columns": 0,
   "hidden": 0,
   "is_query_report": 0,
   "label": "Service Level Agreement",
   "link_count": 0,
   "onboard": 0,
   "type": "Card Break"
  },
  {
   "columns": 0,
   "dependencies": "",
   "hidden": 0,
   "is_query_report": 0,
   "label": "Service Level Agreement",
   "link_count": 0,
   "link_to": "Service Level Agreement",
   "link_type": "DocType",
   "onboard": 0,
   "type": "Link"
  },
  {
   "columns": 0,
   "hidden": 0,
   "is_query_report": 0,
   "label": "Warranty",
   "link_count": 0,
   "onboard": 0,
   "type": "Card Break"
  },
  {
   "columns": 0,
   "dependencies": "",
   "hidden": 0,
   "is_query_report": 0,
   "label": "Warranty Claim",
   "link_count": 0,
   "link_to": "Warranty Claim",
   "link_type": "DocType",
   "onboard": 0,
   "type": "Link"
  },
  {
   "columns": 0,
   "dependencies": "",
   "hidden": 0,
   "is_query_report": 0,
   "label": "Serial No",
   "link_count": 0,
   "link_to": "Serial No",
   "link_type": "DocType",
   "onboard": 0,
   "type": "Link"
  },
  {
   "columns": 0,
   "hidden": 0,
   "is_query_report": 0,
   "label": "Settings",
   "link_count": 0,
   "onboard": 0,
   "type": "Card Break"
  },
  {
   "columns": 0,
   "dependencies": "",
   "hidden": 0,
   "is_query_report": 0,
   "label": "Support Settings",
   "link_count": 0,
   "link_to": "Support Settings",
   "link_type": "DocType",
   "onboard": 0,
   "type": "Link"
  },
  {
   "columns": 0,
   "hidden": 0,
   "is_query_report": 0,
   "label": "Reports",
   "link_count": 0,
   "onboard": 0,
   "type": "Card Break"
  },
  {
   "columns": 0,
   "dependencies": "Issue",
   "hidden": 0,
   "is_query_report": 1,
   "label": "First Response Time for Issues",
   "link_count": 0,
   "link_to": "First Response Time for Issues",
   "link_type": "Report",
   "onboard": 0,
   "type": "Link"
  }
 ],
 "modified": "2023-09-20 09:29:02.776700",
 "modified_by": "Administrator",
 "module": "Support",
 "name": "Support",
 "number_cards": [],
 "owner": "Administrator",
 "parent_page": "",
 "public": 1,
 "quick_lists": [],
 "roles": [],
 "sequence_id": 29.0,
 "shortcuts": [
  {
   "color": "Yellow",
   "columns": 0,
   "format": "{} Assigned",
   "label": "Issue",
   "link_to": "Issue",
   "stats_filter": "{\n    \"_assign\": [\"like\", '%' + frappe.session.user + '%'],\n    \"status\": \"Open\"\n}",
   "type": "DocType"
  },
  {
   "columns": 0,
   "label": "Maintenance Visit",
   "link_to": "Maintenance Visit",
   "type": "DocType"
  },
  {
   "columns": 0,
   "label": "Service Level Agreement",
   "link_to": "Service Level Agreement",
   "type": "DocType"
  }
 ],
 "title": "Support"
}
