{
 "action": "Create Entry",
 "action_label": "Learn more about Production Planning",
 "creation": "2021-08-04 17:33:06.551077",
 "description": "# How Production Planning Works\n\nProduction Plan helps in production and material planning for the Items planned for manufacturing. These production items can be committed via Sales Order (to Customers) or Material Requests (internally).\n",
 "docstatus": 0,
 "doctype": "Onboarding Step",
 "idx": 0,
 "is_complete": 0,
 "is_single": 0,
 "is_skipped": 0,
 "language": "en",
 "modified": "2023-08-10 16:03:55.748377",
 "modified_by": "Administrator",
 "name": "Production Planning",
 "owner": "Administrator",
 "reference_document": "Production Plan",
 "show_form_tour": 0,
 "show_full_form": 1,
 "title": "Production Planning",
 "validate_action": 1
}
